<?xml version="1.0" encoding="utf-8"?>
<!-- Generator: Adobe Illustrator 17.0.0, SVG Export Plug-In . SVG Version: 6.00 Build 0)  -->
<!DOCTYPE svg PUBLIC "-//W3C//DTD SVG 1.1//EN" "http://www.w3.org/Graphics/SVG/1.1/DTD/svg11.dtd">
<svg version="1.1" id="Capa_1" xmlns="http://www.w3.org/2000/svg" xmlns:xlink="http://www.w3.org/1999/xlink" x="0px" y="0px"
	 width="66.406px" height="74.219px" viewBox="0 19.531 66.406 74.219" enable-background="new 0 19.531 66.406 74.219"
	 xml:space="preserve">
<polygon fill="#1BBC9D" points="0,19.531 66.406,19.531 59.766,85.938 33.203,93.75 6.641,85.938 "/>
<polygon fill="#129B81" points="33.203,25.781 58.984,25.781 53.906,79.688 33.203,87.891 "/>
<path fill="#FFFFFF" d="M55.036,46.288L25.925,75.399L11.37,60.844l5.458-5.458l9.097,9.097L49.578,40.83L55.036,46.288z"/>
</svg>
